<svg width="20" height="20" viewBox="0 0 20 20" fill="none" xmlns="http://www.w3.org/2000/svg">
<path d="M14.2628 7.66889H11.5658V5.90006C11.5658 5.23578 12.0061 5.08091 12.3161 5.08091C12.6255 5.08091 14.2194 5.08091 14.2194 5.08091V2.16062L11.5982 2.15039C8.68854 2.15039 8.02638 4.32844 8.02638 5.72226V7.66889H6.34363V10.6781H8.02638C8.02638 14.5399 8.02638 19.1931 8.02638 19.1931H11.5658C11.5658 19.1931 11.5658 14.4941 11.5658 10.6781H13.9541L14.2628 7.66889Z" fill="white"/>
</svg>
